…
We detected these problematic arguments:
* `needs_dots`

These dots only exist to allow future extensions and should be empty.
Did you misspecify an argument? 

| That's a job well done!

  |======================================                                                              |  38%
| Print the entire dataset again, just to remind yourself of what it looks like. You can do this at anytime
| during the lesson.

> cran
# A tibble: 225,468 x 11
       X date       time        size r_version r_arch r_os      package      version country ip_id
   <int> <chr>      <chr>      <int> <chr>     <chr>  <chr>     <chr>        <chr>   <chr>   <int>
 1     1 2014-07-08 00:54:41   80589 3.1.0     x86_64 mingw32   htmltools    0.2.4   US          1
 2     2 2014-07-08 00:59:53  321767 3.1.0     x86_64 mingw32   tseries      0.10-32 US          2
 3     3 2014-07-08 00:47:13  748063 3.1.0     x86_64 linux-gnu party        1.0-15  US          3
 4     4 2014-07-08 00:48:05  606104 3.1.0     x86_64 linux-gnu Hmisc        3.14-4  US          3
 5     5 2014-07-08 00:46:50   79825 3.0.2     x86_64 linux-gnu digest       0.6.4   CA          4
 6     6 2014-07-08 00:48:04   77681 3.1.0     x86_64 linux-gnu randomForest 4.6-7   US          3
 7     7 2014-07-08 00:48:35  393754 3.1.0     x86_64 linux-gnu plyr         1.8.1   US          3
 8     8 2014-07-08 00:47:30   28216 3.0.2     x86_64 linux-gnu whisker      0.3-2   US          5
 9     9 2014-07-08 00:54:58    5928 NA        NA     NA        Rcpp         0.10.4  CN          6
10    10 2014-07-08 00:15:35 2206029 3.0.2     x86_64 linux-gnu hflights     0.1     US          7
# ... with 225,458 more rows
…
We detected these problematic arguments:
* `needs_dots`

These dots only exist to allow future extensions and should be empty.
Did you misspecify an argument? 

| Excellent work!

  |========================================                                                            |  40%
| Instead of specifying the columns we want to keep, we can also specify the columns we want to throw away.
| To see how this works, do select(cran, -time) to omit the time column.

> select(cran, -time)
# A tibble: 225,468 x 10
       X date          size r_version r_arch r_os      package      version country ip_id
   <int> <chr>        <int> <chr>     <chr>  <chr>     <chr>        <chr>   <chr>   <int>
 1     1 2014-07-08   80589 3.1.0     x86_64 mingw32   htmltools    0.2.4   US          1
 2     2 2014-07-08  321767 3.1.0     x86_64 mingw32   tseries      0.10-32 US          2
 3     3 2014-07-08  748063 3.1.0     x86_64 linux-gnu party        1.0-15  US          3
 4     4 2014-07-08  606104 3.1.0     x86_64 linux-gnu Hmisc        3.14-4  US          3
 5     5 2014-07-08   79825 3.0.2     x86_64 linux-gnu digest       0.6.4   CA          4
 6     6 2014-07-08   77681 3.1.0     x86_64 linux-gnu randomForest 4.6-7   US          3
 7     7 2014-07-08  393754 3.1.0     x86_64 linux-gnu plyr         1.8.1   US          3
 8     8 2014-07-08   28216 3.0.2     x86_64 linux-gnu whisker      0.3-2   US          5
 9     9 2014-07-08    5928 NA        NA     NA        Rcpp         0.10.4  CN          6
10    10 2014-07-08 2206029 3.0.2     x86_64 linux-gnu hflights     0.1     US          7
# ... with 225,458 more rows
…
| Keep up the great work!

  |==========================================                                                          |  42%
| The negative sign in front of time tells select() that we DON'T want the time column. Now, let's combine
| strategies to omit all columns from X through size (X:size). To see how this might work, let's look at a
| numerical example with -5:20.

> select(cran, -X:tamaño)
Error: Can't subset columns that don't exist.
x Column `tamaño` doesn't exist.
Run `rlang::last_error()` to see where the error occurred.
> select(cran, -X:size)
# A tibble: 225,468 x 3
   date       time        size
   <chr>      <chr>      <int>
 1 2014-07-08 00:54:41   80589
 2 2014-07-08 00:59:53  321767
 3 2014-07-08 00:47:13  748063
 4 2014-07-08 00:48:05  606104
 5 2014-07-08 00:46:50   79825
 6 2014-07-08 00:48:04   77681
 7 2014-07-08 00:48:35  393754
 8 2014-07-08 00:47:30   28216
 9 2014-07-08 00:54:58    5928
10 2014-07-08 00:15:35 2206029
# ... with 225,458 more rows
…
> -(5:20)
 [1]  -5  -6  -7  -8  -9 -10 -11 -12 -13 -14 -15 -16 -17 -18 -19 -20

| Keep up the great work!

  |=============================================                                                       |  45%
| Use this knowledge to omit all columns X:size using select().

> select(cran, -(X:size))
# A tibble: 225,468 x 7
   r_version r_arch r_os      package      version country ip_id
   <chr>     <chr>  <chr>     <chr>        <chr>   <chr>   <int>
 1 3.1.0     x86_64 mingw32   htmltools    0.2.4   US          1
 2 3.1.0     x86_64 mingw32   tseries      0.10-32 US          2
 3 3.1.0     x86_64 linux-gnu party        1.0-15  US          3
 4 3.1.0     x86_64 linux-gnu Hmisc        3.14-4  US          3
 5 3.0.2     x86_64 linux-gnu digest       0.6.4   CA          4
 6 3.1.0     x86_64 linux-gnu randomForest 4.6-7   US          3
 7 3.1.0     x86_64 linux-gnu plyr         1.8.1   US          3
 8 3.0.2     x86_64 linux-gnu whisker      0.3-2   US          5
 9 NA        NA     NA        Rcpp         0.10.4  CN          6
10 3.0.2     x86_64 linux-gnu hflights     0.1     US          7
# ... with 225,458 more rows
…
| You got it!

  |===============================================                                                     |  47%
| Now that you know how to select a subset of columns using select(), a natural next question is "How do I
| select a subset of rows?" That's where the filter() function comes in.

...

  |================================================                                                    |  48%
| Use filter(cran, package == "swirl") to select all rows for which the package variable is equal to "swirl".
| Be sure to use two equals signs side-by-side!

> filter(cran, package == "swirl")
# A tibble: 820 x 11
       X date       time       size r_version r_arch r_os         package version country ip_id
   <int> <chr>      <chr>     <int> <chr>     <chr>  <chr>        <chr>   <chr>   <chr>   <int>
 1    27 2014-07-08 00:17:16 105350 3.0.2     x86_64 mingw32      swirl   2.2.9   US         20
 2   156 2014-07-08 00:22:53  41261 3.1.0     x86_64 linux-gnu    swirl   2.2.9   US         66
 3   358 2014-07-08 00:13:42 105335 2.15.2    x86_64 mingw32      swirl   2.2.9   CA        115
 4   593 2014-07-08 00:59:45 105465 3.1.0     x86_64 darwin13.1.0 swirl   2.2.9   MX        162
 5   831 2014-07-08 00:55:27 105335 3.0.3     x86_64 mingw32      swirl   2.2.9   US         57
 6   997 2014-07-08 00:33:06  41261 3.1.0     x86_64 mingw32      swirl   2.2.9   US         70
 7  1023 2014-07-08 00:35:36 106393 3.1.0     x86_64 mingw32      swirl   2.2.9   BR        248
 8  1144 2014-07-08 00:00:39 106534 3.0.2     x86_64 linux-gnu    swirl   2.2.9   US        261
 9  1402 2014-07-08 00:41:41  41261 3.1.0     i386   mingw32      swirl   2.2.9   US        234
10  1424 2014-07-08 00:44:49 106393 3.1.0     x86_64 linux-gnu    swirl   2.2.9   US        301
# ... with 810 more rows
…
  |====================================================                                                |  52%
| The == operator asks whether the thing on the left is equal to the thing on the right. If yes, then it
| returns TRUE. If no, then FALSE. In this case, package is an entire vector (column) of values, so package
| == "swirl" returns a vector of TRUEs and FALSEs. filter() then returns only the rows of cran corresponding
| to the TRUEs.

...

  |=====================================================                                               |  53%
| You can specify as many conditions as you want, separated by commas. For example filter(cran, r_version ==
| "3.1.1", country == "US") will return all rows of cran corresponding to downloads from users in the US
| running R version 3.1.1. Try it out.

> filter(cran, r_version == "3.1.1", country == "US")
# A tibble: 1,588 x 11
       X date       time        size r_version r_arch r_os         package      version country ip_id
   <int> <chr>      <chr>      <int> <chr>     <chr>  <chr>        <chr>        <chr>   <chr>   <int>
 1  2216 2014-07-08 00:48:58  385112 3.1.1     x86_64 darwin13.1.0 colorspace   1.2-4   US        191
 2 17332 2014-07-08 03:39:57  197459 3.1.1     x86_64 darwin13.1.0 httr         0.3     US       1704
 3 17465 2014-07-08 03:25:38   23259 3.1.1     x86_64 darwin13.1.0 snow         0.3-13  US         62
 4 18844 2014-07-08 03:59:17  190594 3.1.1     x86_64 darwin13.1.0 maxLik       1.2-0   US       1533
 5 30182 2014-07-08 04:13:15   77683 3.1.1     i386   mingw32      randomForest 4.6-7   US        646
 6 30193 2014-07-08 04:06:26 2351969 3.1.1     i386   mingw32      ggplot2      1.0.0   US          8
 7 30195 2014-07-08 04:07:09  299080 3.1.1     i386   mingw32      fExtremes    3010.81 US       2010
 8 30217 2014-07-08 04:32:04  568036 3.1.1     i386   mingw32      rJava        0.9-6   US         98
 9 30245 2014-07-08 04:10:41  526858 3.1.1     i386   mingw32      LPCM         0.44-8  US          8
10 30354 2014-07-08 04:32:51 1763717 3.1.1     i386   mingw32      mgcv         1.8-1   US       2122
# ... with 1,578 more rows
…
  |=======================================================                                             |  55%
| The conditions passed to filter() can make use of any of the standard comparison operators. Pull up the
| relevant documentation with ?Comparison (that's an uppercase C).

> ?Comparison

| You got it!

  |=========================================================                                           |  57%
| Edit your previous call to filter() to instead return rows corresponding to users in "IN" (India) running
| an R version that is less than or equal to "3.0.2". The up arrow on your keyboard may come in handy here.
| Don't forget your double quotes!

> filter(cran, r_version == "3.1.1", country == "IN")
# A tibble: 1,461 x 11
       X date       time        size r_version r_arch r_os    package  version country ip_id
   <int> <chr>      <chr>      <int> <chr>     <chr>  <chr>   <chr>    <chr>   <chr>   <int>
 1 30174 2014-07-08 04:15:55 2642631 3.1.1     i386   mingw32 Ecdat    0.2-6   IN       1934
 2 30239 2014-07-08 04:06:49  137185 3.1.1     i386   mingw32 digest   0.6.4   IN       2233
 3 30240 2014-07-08 04:06:49  106613 3.1.1     i386   mingw32 swirl    2.2.9   IN       2233
 4 30244 2014-07-08 04:16:19 1493814 3.1.1     i386   mingw32 heplots  1.0-12  IN       1934
 5 30626 2014-07-08 04:55:27  329159 3.1.1     i386   mingw32 httr     0.3     IN       1942
 6 30645 2014-07-08 04:15:59  301123 3.1.1     i386   mingw32 Matching 4.8-3.4 IN       1934
 7 30648 2014-07-08 04:15:29   17267 3.1.1     i386   mingw32 rbounds  2.0     IN       1934
 8 30690 2014-07-08 04:14:08  546123 3.1.1     i386   mingw32 Rmpfr    0.5-5   IN       1934
 9 30691 2014-07-08 04:14:19  321094 3.1.1     i386   mingw32 lavaan   0.5-16  IN       1934
10 30720 2014-07-08 04:18:58   49955 3.1.1     i386   mingw32 fts      0.9.9   IN       1934
# ... with 1,451 more rows
…
We detected these problematic arguments:
* `needs_dots`

These dots only exist to allow future extensions and should be empty.
Did you misspecify an argument? 

| That's not the answer I was looking for, but try again. Or, type info() for more options.

| filter(cran, r_version <= "3.0.2", country == "IN") will return all rows for which r_version is less than
| or equal to "3.0.2" and country is equal to "IN".

> filter(cran, r_version == "3.0.2", country == "IN")
# A tibble: 2,915 x 11
       X date       time        size r_version r_arch r_os      package   version  country ip_id
   <int> <chr>      <chr>      <int> <chr>     <chr>  <chr>     <chr>     <chr>    <chr>   <int>
 1  9990 2014-07-08 02:11:32  397497 3.0.2     x86_64 linux-gnu equateIRT 1.1      IN       1054
 2  9991 2014-07-08 02:11:32  119199 3.0.2     x86_64 linux-gnu ggdendro  0.1-14   IN       1054
 3  9992 2014-07-08 02:11:33   81779 3.0.2     x86_64 linux-gnu dfcrm     0.2-2    IN       1054
 4 10189 2014-07-08 02:38:06  908854 3.0.2     x86_64 linux-gnu editrules 2.7.2    IN       1054
 5 10199 2014-07-08 02:38:28  178436 3.0.2     x86_64 linux-gnu energy    1.6.1    IN       1054
 6 10200 2014-07-08 02:38:29   51811 3.0.2     x86_64 linux-gnu ENmisc    1.2-7    IN       1054
 7 10201 2014-07-08 02:38:29   65245 3.0.2     x86_64 linux-gnu entropy   1.2.0    IN       1054
 8 10202 2014-07-08 02:38:34 1635410 3.0.2     x86_64 linux-gnu Epi       1.1.65   IN       1054
 9 10203 2014-07-08 02:38:35  455085 3.0.2     i686   linux-gnu epicalc   2.15.1.0 IN       1054
10 10205 2014-07-08 02:38:39  228907 3.0.2     x86_64 linux-gnu epitools  0.5-7    IN       1054
# ... with 2,905 more rows
…
We detected these problematic arguments:
* `needs_dots`

These dots only exist to allow future extensions and should be empty.
Did you misspecify an argument? 

| That's not exactly what I'm looking for. Try again. Or, type info() for more options.

| filter(cran, r_version <= "3.0.2", country == "IN") will return all rows for which r_version is less than
| or equal to "3.0.2" and country is equal to "IN".

> filter(cran, r_version <= "3.0.2", country == "IN")
# A tibble: 4,139 x 11
       X date       time         size r_version r_arch r_os      package       version   country ip_id
   <int> <chr>      <chr>       <int> <chr>     <chr>  <chr>     <chr>         <chr>     <chr>   <int>
 1   348 2014-07-08 00:44:04 10218907 3.0.0     x86_64 mingw32   BH            1.54.0-2  IN        112
 2  9990 2014-07-08 02:11:32   397497 3.0.2     x86_64 linux-gnu equateIRT     1.1       IN       1054
 3  9991 2014-07-08 02:11:32   119199 3.0.2     x86_64 linux-gnu ggdendro      0.1-14    IN       1054
 4  9992 2014-07-08 02:11:33    81779 3.0.2     x86_64 linux-gnu dfcrm         0.2-2     IN       1054
 5 10022 2014-07-08 02:19:45  1557078 2.15.0    x86_64 mingw32   RcppArmadillo 0.4.320.0 IN       1060
 6 10023 2014-07-08 02:19:46  1184285 2.15.1    i686   linux-gnu forecast      5.4       IN       1060
 7 10189 2014-07-08 02:38:06   908854 3.0.2     x86_64 linux-gnu editrules     2.7.2     IN       1054
 8 10199 2014-07-08 02:38:28   178436 3.0.2     x86_64 linux-gnu energy        1.6.1     IN       1054
 9 10200 2014-07-08 02:38:29    51811 3.0.2     x86_64 linux-gnu ENmisc        1.2-7     IN       1054
10 10201 2014-07-08 02:38:29    65245 3.0.2     x86_64 linux-gnu entropy       1.2.0     IN       1054
# ... with 4,129 more rows
…
These dots only exist to allow future extensions and should be empty.
Did you misspecify an argument? 

| Nice work!

  |==========================================================                                          |  58%
| Our last two calls to filter() requested all rows for which some condition AND another condition were TRUE.
| We can also request rows for which EITHER one condition OR another condition are TRUE. For example,
| filter(cran, country == "US" | country == "IN") will gives us all rows for which the country variable
| equals either "US" or "IN". Give it a go.

> filter(cran, country == "US" | country == "IN")
# A tibble: 95,283 x 11
       X date       time        size r_version r_arch r_os      package      version country ip_id
   <int> <chr>      <chr>      <int> <chr>     <chr>  <chr>     <chr>        <chr>   <chr>   <int>
 1     1 2014-07-08 00:54:41   80589 3.1.0     x86_64 mingw32   htmltools    0.2.4   US          1
 2     2 2014-07-08 00:59:53  321767 3.1.0     x86_64 mingw32   tseries      0.10-32 US          2
 3     3 2014-07-08 00:47:13  748063 3.1.0     x86_64 linux-gnu party        1.0-15  US          3
 4     4 2014-07-08 00:48:05  606104 3.1.0     x86_64 linux-gnu Hmisc        3.14-4  US          3
 5     6 2014-07-08 00:48:04   77681 3.1.0     x86_64 linux-gnu randomForest 4.6-7   US          3
 6     7 2014-07-08 00:48:35  393754 3.1.0     x86_64 linux-gnu plyr         1.8.1   US          3
 7     8 2014-07-08 00:47:30   28216 3.0.2     x86_64 linux-gnu whisker      0.3-2   US          5
 8    10 2014-07-08 00:15:35 2206029 3.0.2     x86_64 linux-gnu hflights     0.1     US          7
 9    11 2014-07-08 00:15:25  526858 3.0.2     x86_64 linux-gnu LPCM         0.44-8  US          8
10    12 2014-07-08 00:14:45 2351969 2.14.1    x86_64 linux-gnu ggplot2      1.0.0   US          8
# ... with 95,273 more rows
…
  NAs introducidos por coerción
2: In mask$eval_all_filter(dots, env_filter) :
  NAs introducidos por coerción
3: In mask$eval_all_filter(dots, env_filter) :
  NAs introducidos por coerción
4: In mask$eval_all_filter(dots, env_filter) :
  NAs introducidos por coerción
5: In mask$eval_all_filter(dots, env_filter) :
  NAs introducidos por coerción
6: In mask$eval_all_filter(dots, env_filter) :
  NAs introducidos por coerción
7: In mask$eval_all_filter(dots, env_filter) :
  NAs introducidos por coerción
> filter(cran, cran > 100500, r_os == "linux-gnu")
# A tibble: 25,479 x 11
        X date       time        size r_version r_arch r_os      package    version country ip_id
    <int> <chr>      <chr>      <int> <chr>     <chr>  <chr>     <chr>      <chr>   <chr>   <int>
 1 100523 2014-07-08 12:17:10  526858 3.0.2     x86_64 linux-gnu LPCM       0.44-8  US          8
 2 100526 2014-07-08 12:29:36 1781706 3.0.2     x86_64 linux-gnu kernlab    0.9-19  DE       6635
 3 100527 2014-07-08 12:27:36  102004 3.1.0     x86_64 linux-gnu useful     1.1.8   US       4219
 4 100528 2014-07-08 12:33:40   40611 3.1.0     x86_64 linux-gnu scales     0.2.4   US       6086
 5 100529 2014-07-08 12:32:30  837775 2.14.1    x86_64 linux-gnu plyr       1.8.1   IN       6636
 6 100530 2014-07-08 12:31:34    4726 3.0.2     x86_64 linux-gnu memoise    0.2.1   DE        303
 7 100534 2014-07-08 12:49:38 1349345 3.1.0     x86_64 linux-gnu data.table 1.9.2   US       6637
 8 100535 2014-07-08 12:50:35 1238811 3.0.2     x86_64 linux-gnu ape        3.0-11  LV       6495
 9 100536 2014-07-08 12:50:40 1744959 2.14.1    x86_64 linux-gnu coin       1.0-23  LV       6495
10 100594 2014-07-08 12:08:19  110544 3.0.2     x86_64 linux-gnu gtools     3.4.1   NO       6653
# ... with 25,469 more rows
…
